INDEX VERSION 1.4+C:\Users\ADMIN\Documents\Vishwanatha\Development\Project\.metadata\.plugins\org.eclipse.wst.jsdt.core\indexes
2853971202.index
3206505026.index
697397557.index
3420407864.index
3357999999.index
2512136665.index
3954101725.index
2491979720.index
126300694.index
2281279252.index
