<?xml version="1.0" encoding="UTF-8"?>
<session version="1.0">
<refactoring comment="Copy element &apos;UserForm.java&apos; to &apos;AssignmentOne/src/main/java/form&apos;&#x0D;&#x0A;- Original project: &apos;AssignmentOne&apos;&#x0D;&#x0A;- Destination element: &apos;AssignmentOne/src/main/java/form&apos;&#x0D;&#x0A;- Original element: &apos;UserForm.java&apos;" description="Copy compilation unit" destination="/src\/main\/java&lt;form" element1="/src\/main\/java&lt;{UserForm.java" files="0" flags="589830" folders="0" id="org.eclipse.jdt.ui.copy" policy="org.eclipse.jdt.ui.copyResources" stamp="1693550002642" units="1" version="1.0"/>
</session>