192.168.0.107 - - [05/Oct/2023:09:49:44 +0530] "GET /yaragoemrjavaclient/Login.jsp HTTP/1.1" 404 1009
192.168.0.107 - - [05/Oct/2023:09:49:44 +0530] "GET /favicon.ico HTTP/1.1" 404 973
0:0:0:0:0:0:0:1 - - [05/Oct/2023:10:08:19 +0530] "GET //PaymentBillingProj/home.jsp HTTP/1.1" 404 1007
0:0:0:0:0:0:0:1 - - [05/Oct/2023:10:08:32 +0530] "GET //PaymentBillingProj/Home.jsp HTTP/1.1" 200 2683
0:0:0:0:0:0:0:1 - - [05/Oct/2023:10:08:32 +0530] "GET //PaymentBillingProj/css/Home.css HTTP/1.1" 200 488
0:0:0:0:0:0:0:1 - - [05/Oct/2023:10:08:32 +0530] "GET //PaymentBillingProj/img/banner.jpg HTTP/1.1" 200 145744
0:0:0:0:0:0:0:1 - - [05/Oct/2023:10:08:37 +0530] "POST //PaymentBillingProj/Home.jsp HTTP/1.1" 200 2683
0:0:0:0:0:0:0:1 - - [05/Oct/2023:10:08:40 +0530] "GET //PaymentBillingProj/Admin.jsp HTTP/1.1" 200 2420
0:0:0:0:0:0:0:1 - - [05/Oct/2023:10:08:47 +0530] "GET //PaymentBillingProj/Admin.jsp HTTP/1.1" 200 2420
0:0:0:0:0:0:0:1 - - [05/Oct/2023:10:08:48 +0530] "GET //PaymentBillingProj/Admin.jsp HTTP/1.1" 200 2420
0:0:0:0:0:0:0:1 - - [05/Oct/2023:10:08:51 +0530] "GET //PaymentBillingProj/Admin.jsp HTTP/1.1" 200 2420
0:0:0:0:0:0:0:1 - - [05/Oct/2023:10:09:59 +0530] "GET //PaymentBillingProj/Admin.jsp HTTP/1.1" 200 2420
0:0:0:0:0:0:0:1 - - [05/Oct/2023:10:10:03 +0530] "POST //PaymentBillingProj/Home.jsp HTTP/1.1" 200 2683
0:0:0:0:0:0:0:1 - - [05/Oct/2023:10:11:15 +0530] "POST //PaymentBillingProj/Home.jsp HTTP/1.1" 200 2683
0:0:0:0:0:0:0:1 - - [05/Oct/2023:10:11:53 +0530] "POST //PaymentBillingProj/Home.jsp HTTP/1.1" 200 2683
0:0:0:0:0:0:0:1 - - [05/Oct/2023:10:12:57 +0530] "POST //PaymentBillingProj/Home.jsp HTTP/1.1" 200 2741
0:0:0:0:0:0:0:1 - - [05/Oct/2023:10:12:59 +0530] "GET //PaymentBillingProj/Admin.jsp HTTP/1.1" 200 2420
0:0:0:0:0:0:0:1 - - [05/Oct/2023:10:13:02 +0530] "GET //PaymentBillingProj/Admin.jsp HTTP/1.1" 200 2420
0:0:0:0:0:0:0:1 - - [05/Oct/2023:10:13:05 +0530] "GET //PaymentBillingProj/Home.jsp HTTP/1.1" 200 2741
0:0:0:0:0:0:0:1 - - [05/Oct/2023:10:15:55 +0530] "GET //PaymentBillingProj/Admin.jsp HTTP/1.1" 200 2420
0:0:0:0:0:0:0:1 - - [05/Oct/2023:10:15:58 +0530] "GET //PaymentBillingProj/Home.jsp HTTP/1.1" 200 2741
0:0:0:0:0:0:0:1 - - [05/Oct/2023:10:17:38 +0530] "GET //PaymentBillingProj/Home.jsp HTTP/1.1" 200 2741
0:0:0:0:0:0:0:1 - - [05/Oct/2023:10:17:39 +0530] "GET //PaymentBillingProj/Home.jsp HTTP/1.1" 200 2741
0:0:0:0:0:0:0:1 - - [05/Oct/2023:10:17:40 +0530] "GET //PaymentBillingProj/Home.jsp HTTP/1.1" 200 2741
0:0:0:0:0:0:0:1 - - [05/Oct/2023:10:21:01 +0530] "GET //PaymentBillingProj/Home.jsp HTTP/1.1" 200 2741
0:0:0:0:0:0:0:1 - - [05/Oct/2023:10:21:02 +0530] "GET //PaymentBillingProj/Home.jsp HTTP/1.1" 200 2741
0:0:0:0:0:0:0:1 - - [05/Oct/2023:10:21:09 +0530] "GET //PaymentBillingProj/Home.jsp HTTP/1.1" 200 2741
0:0:0:0:0:0:0:1 - - [05/Oct/2023:10:22:28 +0530] "GET //PaymentBillingProj/Home.jsp HTTP/1.1" 200 2741
0:0:0:0:0:0:0:1 - - [05/Oct/2023:10:23:51 +0530] "GET //PaymentBillingProj/Home.jsp HTTP/1.1" 200 2749
0:0:0:0:0:0:0:1 - - [05/Oct/2023:10:23:53 +0530] "GET //PaymentBillingProj/Home.jsp HTTP/1.1" 200 2749
0:0:0:0:0:0:0:1 - - [05/Oct/2023:10:23:55 +0530] "GET //PaymentBillingProj/Home.jsp HTTP/1.1" 200 2749
0:0:0:0:0:0:0:1 - - [05/Oct/2023:10:24:15 +0530] "GET /PaymentBillingProj/css/Home.css HTTP/1.1" 200 526
0:0:0:0:0:0:0:1 - - [05/Oct/2023:10:24:19 +0530] "GET /favicon.ico HTTP/1.1" 404 973
0:0:0:0:0:0:0:1 - - [05/Oct/2023:10:24:33 +0530] "GET /PaymentBillingProj/Home.jsp HTTP/1.1" 200 2749
0:0:0:0:0:0:0:1 - - [05/Oct/2023:10:24:33 +0530] "GET /PaymentBillingProj/css/Home.css HTTP/1.1" 304 -
0:0:0:0:0:0:0:1 - - [05/Oct/2023:10:24:33 +0530] "GET /PaymentBillingProj/img/banner.jpg HTTP/1.1" 304 -
0:0:0:0:0:0:0:1 - - [05/Oct/2023:10:24:47 +0530] "GET /PaymentBillingProj/Home.jsp HTTP/1.1" 200 2749
0:0:0:0:0:0:0:1 - - [05/Oct/2023:10:24:47 +0530] "GET /PaymentBillingProj/css/Home.css HTTP/1.1" 304 -
0:0:0:0:0:0:0:1 - - [05/Oct/2023:10:25:08 +0530] "GET /PaymentBillingProj/Home.jsp HTTP/1.1" 200 2749
0:0:0:0:0:0:0:1 - - [05/Oct/2023:10:25:08 +0530] "GET /PaymentBillingProj/css/Home.css HTTP/1.1" 200 526
0:0:0:0:0:0:0:1 - - [05/Oct/2023:10:25:09 +0530] "GET /PaymentBillingProj/img/banner.jpg HTTP/1.1" 304 -
0:0:0:0:0:0:0:1 - - [05/Oct/2023:10:25:15 +0530] "GET /PaymentBillingProj/Admin.jsp HTTP/1.1" 200 2420
0:0:0:0:0:0:0:1 - - [05/Oct/2023:10:25:42 +0530] "GET /PaymentBillingProj/Admin.jsp HTTP/1.1" 200 2429
0:0:0:0:0:0:0:1 - - [05/Oct/2023:10:25:42 +0530] "GET /PaymentBillingProj/css/Home.css HTTP/1.1" 304 -
0:0:0:0:0:0:0:1 - - [05/Oct/2023:10:25:43 +0530] "GET /PaymentBillingProj/Admin.jsp HTTP/1.1" 200 2429
0:0:0:0:0:0:0:1 - - [05/Oct/2023:10:25:50 +0530] "GET /PaymentBillingProj/Home.jsp HTTP/1.1" 200 2749
0:0:0:0:0:0:0:1 - - [05/Oct/2023:10:26:42 +0530] "GET /PaymentBillingProj/Home.jsp HTTP/1.1" 200 2785
0:0:0:0:0:0:0:1 - - [05/Oct/2023:10:26:43 +0530] "GET /PaymentBillingProj/css/Home.css HTTP/1.1" 304 -
0:0:0:0:0:0:0:1 - - [05/Oct/2023:10:27:12 +0530] "GET /PaymentBillingProj/css/Home.css HTTP/1.1" 304 -
0:0:0:0:0:0:0:1 - - [05/Oct/2023:10:28:09 +0530] "GET /PaymentBillingProj/Home.jsp HTTP/1.1" 200 2785
0:0:0:0:0:0:0:1 - - [05/Oct/2023:10:28:09 +0530] "GET /PaymentBillingProj/css/Home.css HTTP/1.1" 304 -
0:0:0:0:0:0:0:1 - - [05/Oct/2023:10:28:13 +0530] "GET /PaymentBillingProj/Home.jsp HTTP/1.1" 200 2785
0:0:0:0:0:0:0:1 - - [05/Oct/2023:10:28:15 +0530] "GET /PaymentBillingProj/Admin.jsp HTTP/1.1" 200 2429
0:0:0:0:0:0:0:1 - - [05/Oct/2023:11:28:08 +0530] "GET /PaymentBillingProj/Home.jsp HTTP/1.1" 200 2785
0:0:0:0:0:0:0:1 - - [05/Oct/2023:11:28:09 +0530] "GET /PaymentBillingProj/css/Home.css HTTP/1.1" 304 -
0:0:0:0:0:0:0:1 - - [05/Oct/2023:11:49:55 +0530] "GET /PaymentBillingProj/Admin.jsp HTTP/1.1" 200 2429
0:0:0:0:0:0:0:1 - - [05/Oct/2023:11:49:55 +0530] "GET /PaymentBillingProj/css/Home.css HTTP/1.1" 304 -
0:0:0:0:0:0:0:1 - - [05/Oct/2023:11:49:58 +0530] "GET /PaymentBillingProj/Home.jsp HTTP/1.1" 200 2785
0:0:0:0:0:0:0:1 - - [05/Oct/2023:11:52:58 +0530] "GET /PaymentBillingProj/Admin.jsp HTTP/1.1" 200 2429
0:0:0:0:0:0:0:1 - - [05/Oct/2023:11:54:16 +0530] "GET /PaymentBillingProj/Home.jsp HTTP/1.1" 200 2785
0:0:0:0:0:0:0:1 - - [05/Oct/2023:11:55:02 +0530] "GET /PaymentBillingProj/Home.jsp HTTP/1.1" 200 2785
0:0:0:0:0:0:0:1 - - [05/Oct/2023:11:55:04 +0530] "GET /PaymentBillingProj/Admin.jsp HTTP/1.1" 200 2429
0:0:0:0:0:0:0:1 - - [05/Oct/2023:11:55:09 +0530] "GET /PaymentBillingProj/Home.jsp HTTP/1.1" 200 2785
0:0:0:0:0:0:0:1 - - [05/Oct/2023:11:55:32 +0530] "GET /PaymentBillingProj/Home.jsp HTTP/1.1" 200 2785
0:0:0:0:0:0:0:1 - - [05/Oct/2023:11:56:17 +0530] "POST /PaymentBillingProj/Home.jsp HTTP/1.1" 200 2785
0:0:0:0:0:0:0:1 - - [05/Oct/2023:11:56:31 +0530] "GET /PaymentBillingProj/Home.jsp HTTP/1.1" 200 2785
0:0:0:0:0:0:0:1 - - [05/Oct/2023:11:57:39 +0530] "POST /PaymentBillingProj/Home.jsp HTTP/1.1" 200 2785
0:0:0:0:0:0:0:1 - - [05/Oct/2023:11:59:02 +0530] "GET /PaymentBillingProj/Home.jsp HTTP/1.1" 200 2785
0:0:0:0:0:0:0:1 - - [05/Oct/2023:11:59:02 +0530] "GET /PaymentBillingProj/css/Home.css HTTP/1.1" 304 -
0:0:0:0:0:0:0:1 - - [05/Oct/2023:11:59:03 +0530] "GET /PaymentBillingProj/Home.jsp HTTP/1.1" 200 2785
0:0:0:0:0:0:0:1 - - [05/Oct/2023:11:59:08 +0530] "GET /PaymentBillingProj/Home.jsp HTTP/1.1" 200 2785
0:0:0:0:0:0:0:1 - - [05/Oct/2023:11:59:14 +0530] "GET /PaymentBillingProj/Home.jsp HTTP/1.1" 200 2785
0:0:0:0:0:0:0:1 - - [05/Oct/2023:11:59:16 +0530] "GET /PaymentBillingProj/Home.jsp HTTP/1.1" 200 2785
0:0:0:0:0:0:0:1 - - [05/Oct/2023:12:01:37 +0530] "GET /PaymentBillingProj/Home.jsp HTTP/1.1" 200 2785
0:0:0:0:0:0:0:1 - - [05/Oct/2023:12:01:38 +0530] "GET /PaymentBillingProj/Home.jsp HTTP/1.1" 200 2785
0:0:0:0:0:0:0:1 - - [05/Oct/2023:12:01:44 +0530] "GET /PaymentBillingProj/Home.jsp HTTP/1.1" 200 2785
0:0:0:0:0:0:0:1 - - [05/Oct/2023:12:03:46 +0530] "GET /PaymentBillingProj/Home.jsp HTTP/1.1" 200 2785
0:0:0:0:0:0:0:1 - - [05/Oct/2023:12:03:48 +0530] "GET /PaymentBillingProj/Home.jsp HTTP/1.1" 200 2785
0:0:0:0:0:0:0:1 - - [05/Oct/2023:12:03:50 +0530] "GET /PaymentBillingProj/Admin.jsp HTTP/1.1" 200 2429
0:0:0:0:0:0:0:1 - - [05/Oct/2023:12:03:52 +0530] "GET /PaymentBillingProj/Home.jsp HTTP/1.1" 200 2785
0:0:0:0:0:0:0:1 - - [05/Oct/2023:12:05:37 +0530] "GET /PaymentBillingProj/Home.jsp HTTP/1.1" 200 2785
0:0:0:0:0:0:0:1 - - [05/Oct/2023:12:31:08 +0530] "GET /PaymentBillingProj/Home.jsp HTTP/1.1" 200 2785
0:0:0:0:0:0:0:1 - - [05/Oct/2023:12:31:08 +0530] "GET /PaymentBillingProj/css/Home.css HTTP/1.1" 304 -
0:0:0:0:0:0:0:1 - - [05/Oct/2023:12:31:08 +0530] "GET /PaymentBillingProj/img/banner.jpg HTTP/1.1" 304 -
0:0:0:0:0:0:0:1 - - [05/Oct/2023:12:31:10 +0530] "GET /PaymentBillingProj/Admin.jsp HTTP/1.1" 200 2429
0:0:0:0:0:0:0:1 - - [05/Oct/2023:12:31:11 +0530] "GET /PaymentBillingProj/Home.jsp HTTP/1.1" 200 2785
0:0:0:0:0:0:0:1 - - [05/Oct/2023:16:16:33 +0530] "GET /yaragoemrjavaclient/Login.jsp HTTP/1.1" 404 1009
0:0:0:0:0:0:0:1 - - [05/Oct/2023:16:17:05 +0530] "GET /yaragoemrjavaclient/Login.jsp HTTP/1.1" 404 1009
0:0:0:0:0:0:0:1 - - [05/Oct/2023:16:17:06 +0530] "GET /yaragoemrjavaclient/Login.jsp HTTP/1.1" 404 1009
0:0:0:0:0:0:0:1 - - [05/Oct/2023:16:17:10 +0530] "GET /yaragoemrjavaclient HTTP/1.1" 404 989
0:0:0:0:0:0:0:1 - - [05/Oct/2023:16:17:14 +0530] "GET /yaragoemrjavaclient HTTP/1.1" 404 989
0:0:0:0:0:0:0:1 - - [05/Oct/2023:16:17:17 +0530] "GET /yaragoemrjavaclient/Login.jsp HTTP/1.1" 404 1009
0:0:0:0:0:0:0:1 - - [05/Oct/2023:16:17:40 +0530] "GET /yaragoemrjavaclient/Login.jsp HTTP/1.1" 404 1009
0:0:0:0:0:0:0:1 - - [05/Oct/2023:16:17:41 +0530] "GET /yaragoemrjavaclient/Login.jsp HTTP/1.1" 404 1009
0:0:0:0:0:0:0:1 - - [05/Oct/2023:16:17:42 +0530] "GET /yaragoemrjavaclient/Login.jsp HTTP/1.1" 404 1009
0:0:0:0:0:0:0:1 - - [05/Oct/2023:16:17:49 +0530] "GET /yaragoemrjavaclient/Login.jsp HTTP/1.1" 404 1009
0:0:0:0:0:0:0:1 - - [05/Oct/2023:16:19:19 +0530] "GET /yaragoemrjavaclient/Login.jsp HTTP/1.1" 404 1009
0:0:0:0:0:0:0:1 - - [05/Oct/2023:16:19:19 +0530] "GET /yaragoemrjavaclient/Login.jsp HTTP/1.1" 404 1009
0:0:0:0:0:0:0:1 - - [05/Oct/2023:16:19:20 +0530] "GET /yaragoemrjavaclient/Login.jsp HTTP/1.1" 404 1009
0:0:0:0:0:0:0:1 - - [05/Oct/2023:16:19:23 +0530] "GET / HTTP/1.1" 404 951
0:0:0:0:0:0:0:1 - - [05/Oct/2023:16:19:33 +0530] "GET /submitFormData HTTP/1.1" 404 979
0:0:0:0:0:0:0:1 - - [05/Oct/2023:16:19:38 +0530] "GET /PaymentBillingProj/Home.jsp HTTP/1.1" 200 2785
0:0:0:0:0:0:0:1 - - [05/Oct/2023:16:19:38 +0530] "GET /PaymentBillingProj/css/Home.css HTTP/1.1" 200 526
0:0:0:0:0:0:0:1 - - [05/Oct/2023:16:19:38 +0530] "GET /PaymentBillingProj/img/banner.jpg HTTP/1.1" 200 145744
