127.0.0.1 - - [15/Sep/2023:10:30:53 +0530] "GET / HTTP/1.1" 404 951
0:0:0:0:0:0:0:1 - - [15/Sep/2023:10:31:00 +0530] "GET /studentdetails/ HTTP/1.1" 404 981
0:0:0:0:0:0:0:1 - - [15/Sep/2023:10:31:06 +0530] "GET /favicon.ico HTTP/1.1" 404 973
0:0:0:0:0:0:0:1 - - [15/Sep/2023:10:31:34 +0530] "GET /studentdetails/home.jsp HTTP/1.1" 404 997
0:0:0:0:0:0:0:1 - - [15/Sep/2023:10:31:39 +0530] "GET /studentdetails/home.jsp HTTP/1.1" 404 997
0:0:0:0:0:0:0:1 - - [15/Sep/2023:10:31:40 +0530] "GET /studentdetails/home.jsp HTTP/1.1" 404 997
0:0:0:0:0:0:0:1 - - [15/Sep/2023:10:32:23 +0530] "GET /studentdetails/home.jsp HTTP/1.1" 404 997
0:0:0:0:0:0:0:1 - - [15/Sep/2023:10:32:24 +0530] "GET /studentdetails/home.jsp HTTP/1.1" 404 997
0:0:0:0:0:0:0:1 - - [15/Sep/2023:10:32:24 +0530] "GET /studentdetails/home.jsp HTTP/1.1" 404 997
0:0:0:0:0:0:0:1 - - [15/Sep/2023:10:32:25 +0530] "GET /studentdetails/home.jsp HTTP/1.1" 404 997
0:0:0:0:0:0:0:1 - - [15/Sep/2023:10:32:25 +0530] "GET /studentdetails/home.jsp HTTP/1.1" 404 997
0:0:0:0:0:0:0:1 - - [15/Sep/2023:10:32:29 +0530] "GET //home.jsp HTTP/1.1" 404 969
0:0:0:0:0:0:0:1 - - [15/Sep/2023:10:32:32 +0530] "GET // HTTP/1.1" 404 953
0:0:0:0:0:0:0:1 - - [15/Sep/2023:10:32:35 +0530] "GET / HTTP/1.1" 404 951
0:0:0:0:0:0:0:1 - - [15/Sep/2023:10:32:37 +0530] "GET / HTTP/1.1" 404 951
127.0.0.1 - - [15/Sep/2023:10:33:04 +0530] "GET / HTTP/1.1" 404 951
127.0.0.1 - - [15/Sep/2023:10:33:56 +0530] "GET / HTTP/1.1" 404 951
0:0:0:0:0:0:0:1 - - [15/Sep/2023:10:34:13 +0530] "GET / HTTP/1.1" 404 951
0:0:0:0:0:0:0:1 - - [15/Sep/2023:10:34:13 +0530] "GET /favicon.ico HTTP/1.1" 404 973
0:0:0:0:0:0:0:1 - - [15/Sep/2023:10:34:34 +0530] "GET /studentdetails HTTP/1.1" 404 979
0:0:0:0:0:0:0:1 - - [15/Sep/2023:10:34:43 +0530] "GET /studentdetails/home.jsp HTTP/1.1" 404 997
0:0:0:0:0:0:0:1 - - [15/Sep/2023:10:34:50 +0530] "GET /studentdetails/home.jsp HTTP/1.1" 404 997
0:0:0:0:0:0:0:1 - - [15/Sep/2023:10:34:50 +0530] "GET /studentdetails/home.jsp HTTP/1.1" 404 997
0:0:0:0:0:0:0:1 - - [15/Sep/2023:10:34:51 +0530] "GET /studentdetails/home.jsp HTTP/1.1" 404 997
0:0:0:0:0:0:0:1 - - [15/Sep/2023:10:34:51 +0530] "GET /studentdetails/home.jsp HTTP/1.1" 404 997
127.0.0.1 - - [15/Sep/2023:10:35:07 +0530] "GET / HTTP/1.1" 404 951
0:0:0:0:0:0:0:1 - - [15/Sep/2023:10:35:11 +0530] "GET /studentdetails/home.jsp HTTP/1.1" 200 245
0:0:0:0:0:0:0:1 - - [15/Sep/2023:10:35:11 +0530] "GET /favicon.ico HTTP/1.1" 404 973
0:0:0:0:0:0:0:1 - - [15/Sep/2023:10:35:46 +0530] "GET /studentdetails/home.jsp HTTP/1.1" 200 236
0:0:0:0:0:0:0:1 - - [15/Sep/2023:10:35:48 +0530] "GET /studentdetails/home.jsp?name= HTTP/1.1" 200 236
0:0:0:0:0:0:0:1 - - [15/Sep/2023:10:35:48 +0530] "GET /studentdetails/home.jsp?name= HTTP/1.1" 200 236
0:0:0:0:0:0:0:1 - - [15/Sep/2023:10:35:50 +0530] "GET /studentdetails/home.jsp?name= HTTP/1.1" 200 236
0:0:0:0:0:0:0:1 - - [15/Sep/2023:10:35:54 +0530] "GET /studentdetails/home.jsp?name= HTTP/1.1" 200 236
0:0:0:0:0:0:0:1 - - [15/Sep/2023:10:35:56 +0530] "GET /studentdetails/home.jsp HTTP/1.1" 200 236
0:0:0:0:0:0:0:1 - - [15/Sep/2023:10:35:56 +0530] "GET /studentdetails/home.jsp HTTP/1.1" 200 236
0:0:0:0:0:0:0:1 - - [15/Sep/2023:10:35:57 +0530] "GET /studentdetails/home.jsp HTTP/1.1" 200 236
0:0:0:0:0:0:0:1 - - [15/Sep/2023:10:35:57 +0530] "GET /studentdetails/home.jsp HTTP/1.1" 200 236
0:0:0:0:0:0:0:1 - - [15/Sep/2023:10:35:57 +0530] "GET /studentdetails/home.jsp HTTP/1.1" 200 236
0:0:0:0:0:0:0:1 - - [15/Sep/2023:10:35:57 +0530] "GET /studentdetails/home.jsp HTTP/1.1" 200 236
0:0:0:0:0:0:0:1 - - [15/Sep/2023:10:36:36 +0530] "GET /studentdetails/home.jsp HTTP/1.1" 200 255
0:0:0:0:0:0:0:1 - - [15/Sep/2023:10:36:36 +0530] "GET /studentdetails/cyan HTTP/1.1" 404 989
0:0:0:0:0:0:0:1 - - [15/Sep/2023:10:36:37 +0530] "GET /studentdetails/home.jsp HTTP/1.1" 200 255
0:0:0:0:0:0:0:1 - - [15/Sep/2023:10:36:37 +0530] "GET /studentdetails/cyan HTTP/1.1" 404 989
0:0:0:0:0:0:0:1 - - [15/Sep/2023:10:36:37 +0530] "GET /studentdetails/home.jsp HTTP/1.1" 200 255
0:0:0:0:0:0:0:1 - - [15/Sep/2023:10:36:37 +0530] "GET /studentdetails/cyan HTTP/1.1" 404 989
0:0:0:0:0:0:0:1 - - [15/Sep/2023:10:36:46 +0530] "GET /studentdetails/home.jsp HTTP/1.1" 200 255
0:0:0:0:0:0:0:1 - - [15/Sep/2023:10:36:46 +0530] "GET /studentdetails/blue HTTP/1.1" 404 989
0:0:0:0:0:0:0:1 - - [15/Sep/2023:10:36:47 +0530] "GET /studentdetails/home.jsp HTTP/1.1" 200 255
0:0:0:0:0:0:0:1 - - [15/Sep/2023:10:36:47 +0530] "GET /studentdetails/blue HTTP/1.1" 404 989
0:0:0:0:0:0:0:1 - - [15/Sep/2023:10:36:48 +0530] "GET /studentdetails/home.jsp HTTP/1.1" 200 255
0:0:0:0:0:0:0:1 - - [15/Sep/2023:10:36:48 +0530] "GET /studentdetails/blue HTTP/1.1" 404 989
0:0:0:0:0:0:0:1 - - [15/Sep/2023:10:37:17 +0530] "GET /studentdetails/home.jsp HTTP/1.1" 200 252
0:0:0:0:0:0:0:1 - - [15/Sep/2023:10:37:25 +0530] "GET /studentdetails/home.jsp HTTP/1.1" 200 252
0:0:0:0:0:0:0:1 - - [15/Sep/2023:10:41:13 +0530] "GET /studentdetails/home.jsp HTTP/1.1" 200 275
0:0:0:0:0:0:0:1 - - [15/Sep/2023:10:41:16 +0530] "GET /studentdetails/getDetails?name=1 HTTP/1.1" 404 1001
127.0.0.1 - - [15/Sep/2023:10:41:39 +0530] "GET / HTTP/1.1" 404 951
0:0:0:0:0:0:0:1 - - [15/Sep/2023:10:41:44 +0530] "GET /studentdetails/home.jsp HTTP/1.1" 200 275
0:0:0:0:0:0:0:1 - - [15/Sep/2023:10:41:47 +0530] "GET /studentdetails/getDetails?name= HTTP/1.1" 200 -
0:0:0:0:0:0:0:1 - - [15/Sep/2023:10:41:56 +0530] "GET /studentdetails/home.jsp HTTP/1.1" 200 275
127.0.0.1 - - [15/Sep/2023:10:48:26 +0530] "GET / HTTP/1.1" 404 951
0:0:0:0:0:0:0:1 - - [15/Sep/2023:10:49:01 +0530] "GET /studentdetails/home.jsp HTTP/1.1" 200 275
0:0:0:0:0:0:0:1 - - [15/Sep/2023:10:49:02 +0530] "GET /studentdetails/home.jsp HTTP/1.1" 200 275
0:0:0:0:0:0:0:1 - - [15/Sep/2023:10:49:02 +0530] "GET /studentdetails/home.jsp HTTP/1.1" 200 275
0:0:0:0:0:0:0:1 - - [15/Sep/2023:10:49:05 +0530] "GET /studentdetails/getDetails?name=23 HTTP/1.1" 200 -
127.0.0.1 - - [15/Sep/2023:11:39:59 +0530] "GET / HTTP/1.1" 404 951
0:0:0:0:0:0:0:1 - - [15/Sep/2023:11:39:59 +0530] "GET /studentdetails/getDetails HTTP/1.1" 200 -
0:0:0:0:0:0:0:1 - - [15/Sep/2023:11:40:06 +0530] "GET /studentdetails/ HTTP/1.1" 404 981
0:0:0:0:0:0:0:1 - - [15/Sep/2023:11:40:10 +0530] "GET /studentdetails/home.jsp HTTP/1.1" 200 275
0:0:0:0:0:0:0:1 - - [15/Sep/2023:11:40:12 +0530] "GET /studentdetails/home.jsp HTTP/1.1" 200 275
0:0:0:0:0:0:0:1 - - [15/Sep/2023:11:40:17 +0530] "GET /studentdetails/getDetails?name=vishwa HTTP/1.1" 200 -
0:0:0:0:0:0:0:1 - - [15/Sep/2023:11:40:43 +0530] "GET /studentdetails/home.jsp HTTP/1.1" 200 275
127.0.0.1 - - [15/Sep/2023:11:42:49 +0530] "GET / HTTP/1.1" 404 951
127.0.0.1 - - [15/Sep/2023:11:42:50 +0530] "GET /studentdetails/getDetails HTTP/1.1" 200 -
0:0:0:0:0:0:0:1 - - [15/Sep/2023:11:42:51 +0530] "GET /studentdetails/home.jsp HTTP/1.1" 200 277
0:0:0:0:0:0:0:1 - - [15/Sep/2023:11:42:57 +0530] "GET /studentdetails/home.jsp HTTP/1.1" 200 277
0:0:0:0:0:0:0:1 - - [15/Sep/2023:11:43:09 +0530] "GET /studentdetails/getDetails?name=aa HTTP/1.1" 200 -
127.0.0.1 - - [15/Sep/2023:11:43:57 +0530] "GET / HTTP/1.1" 404 951
0:0:0:0:0:0:0:1 - - [15/Sep/2023:11:44:04 +0530] "GET /studentdetails/home.jsp HTTP/1.1" 200 277
0:0:0:0:0:0:0:1 - - [15/Sep/2023:11:44:08 +0530] "GET /studentdetails/getDetails?name=aa HTTP/1.1" 200 -
127.0.0.1 - - [15/Sep/2023:11:45:35 +0530] "GET / HTTP/1.1" 404 951
0:0:0:0:0:0:0:1 - - [15/Sep/2023:11:45:40 +0530] "GET /studentdetails/home.jsp HTTP/1.1" 200 277
0:0:0:0:0:0:0:1 - - [15/Sep/2023:11:45:42 +0530] "GET /studentdetails/getDetails?name=aa HTTP/1.1" 200 -
0:0:0:0:0:0:0:1 - - [15/Sep/2023:11:45:54 +0530] "GET /studentdetails/home.jsp HTTP/1.1" 200 277
0:0:0:0:0:0:0:1 - - [15/Sep/2023:11:45:57 +0530] "GET /studentdetails/getDetails?name=vishwa HTTP/1.1" 200 -
0:0:0:0:0:0:0:1 - - [15/Sep/2023:11:46:05 +0530] "GET /studentdetails/home.jsp HTTP/1.1" 200 277
0:0:0:0:0:0:0:1 - - [15/Sep/2023:11:46:18 +0530] "GET /studentdetails/getDetails?name=ramesh HTTP/1.1" 200 -
127.0.0.1 - - [15/Sep/2023:11:49:07 +0530] "GET / HTTP/1.1" 404 951
0:0:0:0:0:0:0:1 - - [15/Sep/2023:11:49:23 +0530] "GET /studentdetails/home.jsp HTTP/1.1" 200 277
0:0:0:0:0:0:0:1 - - [15/Sep/2023:11:49:26 +0530] "GET /studentdetails/getDetails?name=aa HTTP/1.1" 200 -
0:0:0:0:0:0:0:1 - - [15/Sep/2023:11:49:38 +0530] "GET /studentdetails/home.jsp HTTP/1.1" 200 277
0:0:0:0:0:0:0:1 - - [15/Sep/2023:11:49:40 +0530] "GET /studentdetails/getDetails?name=aa HTTP/1.1" 200 -
127.0.0.1 - - [15/Sep/2023:11:49:59 +0530] "GET / HTTP/1.1" 404 951
0:0:0:0:0:0:0:1 - - [15/Sep/2023:11:50:37 +0530] "GET /studentdetails/home.jsp HTTP/1.1" 200 277
0:0:0:0:0:0:0:1 - - [15/Sep/2023:11:50:50 +0530] "GET /studentdetails/home.jsp HTTP/1.1" 200 277
0:0:0:0:0:0:0:1 - - [15/Sep/2023:11:50:54 +0530] "GET /studentdetails/getDetails?name=aa HTTP/1.1" 200 -
0:0:0:0:0:0:0:1 - - [15/Sep/2023:11:51:07 +0530] "GET /studentdetails/home.jsp HTTP/1.1" 200 277
0:0:0:0:0:0:0:1 - - [15/Sep/2023:11:51:09 +0530] "GET /studentdetails/getDetails?name=vishwa HTTP/1.1" 200 -
0:0:0:0:0:0:0:1 - - [15/Sep/2023:11:51:13 +0530] "GET /studentdetails/home.jsp HTTP/1.1" 200 277
0:0:0:0:0:0:0:1 - - [15/Sep/2023:11:51:16 +0530] "GET /studentdetails/getDetails?name=Vishwnatha HTTP/1.1" 200 -
127.0.0.1 - - [15/Sep/2023:11:51:43 +0530] "GET / HTTP/1.1" 404 951
0:0:0:0:0:0:0:1 - - [15/Sep/2023:11:51:44 +0530] "GET /studentdetails/getDetails HTTP/1.1" 200 -
0:0:0:0:0:0:0:1 - - [15/Sep/2023:11:51:44 +0530] "GET /favicon.ico HTTP/1.1" 404 973
0:0:0:0:0:0:0:1 - - [15/Sep/2023:11:51:50 +0530] "GET /studentdetails/home.jsp HTTP/1.1" 200 277
0:0:0:0:0:0:0:1 - - [15/Sep/2023:11:51:53 +0530] "GET /studentdetails/getDetails?name=aa HTTP/1.1" 200 -
0:0:0:0:0:0:0:1 - - [15/Sep/2023:11:56:50 +0530] "GET /studentdetails/home.jsp HTTP/1.1" 200 277
0:0:0:0:0:0:0:1 - - [15/Sep/2023:11:56:52 +0530] "GET /studentdetails/getDetails?name=aa HTTP/1.1" 200 -
0:0:0:0:0:0:0:1 - - [15/Sep/2023:11:57:02 +0530] "GET /studentdetails/home.jsp HTTP/1.1" 200 277
0:0:0:0:0:0:0:1 - - [15/Sep/2023:11:57:04 +0530] "GET /studentdetails/getDetails?name=aa HTTP/1.1" 200 -
127.0.0.1 - - [15/Sep/2023:12:01:47 +0530] "GET / HTTP/1.1" 404 951
0:0:0:0:0:0:0:1 - - [15/Sep/2023:12:01:50 +0530] "GET /studentdetails/home.jsp HTTP/1.1" 200 277
0:0:0:0:0:0:0:1 - - [15/Sep/2023:12:01:53 +0530] "GET /studentdetails/getDetails?name=aa HTTP/1.1" 302 -
0:0:0:0:0:0:0:1 - - [15/Sep/2023:12:01:55 +0530] "GET /studentdetails/Entity.jsp HTTP/1.1" 200 151
0:0:0:0:0:0:0:1 - - [15/Sep/2023:12:02:33 +0530] "GET /studentdetails/home.jsp HTTP/1.1" 200 277
0:0:0:0:0:0:0:1 - - [15/Sep/2023:12:02:35 +0530] "GET /studentdetails/getDetails?name=aa HTTP/1.1" 302 -
0:0:0:0:0:0:0:1 - - [15/Sep/2023:12:02:36 +0530] "GET /studentdetails/Entity.jsp HTTP/1.1" 200 155
127.0.0.1 - - [15/Sep/2023:12:08:16 +0530] "GET / HTTP/1.1" 404 951
0:0:0:0:0:0:0:1 - - [15/Sep/2023:12:08:20 +0530] "GET /studentdetails/home.jsp HTTP/1.1" 200 277
0:0:0:0:0:0:0:1 - - [15/Sep/2023:12:08:23 +0530] "GET /studentdetails/getDetails?name=aa HTTP/1.1" 302 -
0:0:0:0:0:0:0:1 - - [15/Sep/2023:12:08:24 +0530] "GET /studentdetails/Entity.jsp HTTP/1.1" 500 2679
127.0.0.1 - - [15/Sep/2023:12:08:55 +0530] "GET / HTTP/1.1" 404 951
0:0:0:0:0:0:0:1 - - [15/Sep/2023:12:09:00 +0530] "GET /studentdetails/getDetails HTTP/1.1" 302 -
0:0:0:0:0:0:0:1 - - [15/Sep/2023:12:09:01 +0530] "GET /studentdetails/Entity.jsp HTTP/1.1" 500 2540
0:0:0:0:0:0:0:1 - - [15/Sep/2023:12:09:09 +0530] "GET /studentdetails/home.jsp HTTP/1.1" 200 277
0:0:0:0:0:0:0:1 - - [15/Sep/2023:12:09:12 +0530] "GET /studentdetails/getDetails?name=aa HTTP/1.1" 302 -
0:0:0:0:0:0:0:1 - - [15/Sep/2023:12:09:12 +0530] "GET /studentdetails/Entity.jsp HTTP/1.1" 500 2540
127.0.0.1 - - [15/Sep/2023:12:22:42 +0530] "GET / HTTP/1.1" 404 951
0:0:0:0:0:0:0:1 - - [15/Sep/2023:12:22:45 +0530] "GET /studentdetails/Entity.jsp HTTP/1.1" 500 2703
0:0:0:0:0:0:0:1 - - [15/Sep/2023:12:23:44 +0530] "GET /studentdetails/Entity.jsp HTTP/1.1" 500 2697
0:0:0:0:0:0:0:1 - - [15/Sep/2023:12:23:51 +0530] "GET /studentdetails/home.jsp HTTP/1.1" 200 277
0:0:0:0:0:0:0:1 - - [15/Sep/2023:12:23:54 +0530] "GET /studentdetails/getDetails?name=vishwa HTTP/1.1" 302 -
0:0:0:0:0:0:0:1 - - [15/Sep/2023:12:23:54 +0530] "GET /studentdetails/Entity.jsp HTTP/1.1" 500 2697
0:0:0:0:0:0:0:1 - - [15/Sep/2023:12:24:18 +0530] "GET /studentdetails/home.jsp HTTP/1.1" 200 277
0:0:0:0:0:0:0:1 - - [15/Sep/2023:12:24:19 +0530] "GET /studentdetails/home.jsp HTTP/1.1" 200 277
0:0:0:0:0:0:0:1 - - [15/Sep/2023:12:24:21 +0530] "GET /studentdetails/getDetails?name=aa HTTP/1.1" 302 -
0:0:0:0:0:0:0:1 - - [15/Sep/2023:12:24:22 +0530] "GET /studentdetails/Entity.jsp HTTP/1.1" 200 258
0:0:0:0:0:0:0:1 - - [15/Sep/2023:12:24:36 +0530] "GET /studentdetails/Entity.jsp HTTP/1.1" 200 258
0:0:0:0:0:0:0:1 - - [15/Sep/2023:12:25:59 +0530] "GET /studentdetails/Entity.jsp HTTP/1.1" 200 258
0:0:0:0:0:0:0:1 - - [15/Sep/2023:12:26:01 +0530] "GET /studentdetails/Entity.jsp HTTP/1.1" 200 258
0:0:0:0:0:0:0:1 - - [15/Sep/2023:12:26:03 +0530] "GET /studentdetails/home.jsp HTTP/1.1" 200 277
0:0:0:0:0:0:0:1 - - [15/Sep/2023:12:26:05 +0530] "GET /studentdetails/getDetails?name=vishwa HTTP/1.1" 302 -
0:0:0:0:0:0:0:1 - - [15/Sep/2023:12:26:05 +0530] "GET /studentdetails/Entity.jsp HTTP/1.1" 200 258
0:0:0:0:0:0:0:1 - - [15/Sep/2023:12:29:42 +0530] "GET /studentdetails/home.jsp HTTP/1.1" 200 277
0:0:0:0:0:0:0:1 - - [15/Sep/2023:12:36:14 +0530] "GET /studentdetails/getDetails?name= HTTP/1.1" 302 -
0:0:0:0:0:0:0:1 - - [15/Sep/2023:12:36:14 +0530] "GET /studentdetails/Entity.jsp HTTP/1.1" 200 258
0:0:0:0:0:0:0:1 - - [15/Sep/2023:12:36:19 +0530] "GET /studentdetails/Entity.jsp HTTP/1.1" 200 258
0:0:0:0:0:0:0:1 - - [15/Sep/2023:12:42:27 +0530] "GET /studentdetails/home.jsp HTTP/1.1" 200 277
127.0.0.1 - - [15/Sep/2023:12:45:10 +0530] "GET / HTTP/1.1" 404 951
0:0:0:0:0:0:0:1 - - [15/Sep/2023:12:45:10 +0530] "GET /studentdetails/home.jsp HTTP/1.1" 200 277
0:0:0:0:0:0:0:1 - - [15/Sep/2023:12:48:16 +0530] "GET /studentdetails/home.jsp HTTP/1.1" 200 277
0:0:0:0:0:0:0:1 - - [15/Sep/2023:12:48:17 +0530] "GET /studentdetails/getDetails?name= HTTP/1.1" 302 -
0:0:0:0:0:0:0:1 - - [15/Sep/2023:12:48:17 +0530] "GET /studentdetails/Entity.jsp HTTP/1.1" 200 258
0:0:0:0:0:0:0:1 - - [15/Sep/2023:12:48:31 +0530] "GET /studentdetails/home.jsp HTTP/1.1" 200 277
0:0:0:0:0:0:0:1 - - [15/Sep/2023:12:48:31 +0530] "GET /studentdetails/getDetails?name= HTTP/1.1" 302 -
0:0:0:0:0:0:0:1 - - [15/Sep/2023:12:48:31 +0530] "GET /studentdetails/Entity.jsp HTTP/1.1" 200 258
0:0:0:0:0:0:0:1 - - [15/Sep/2023:12:49:48 +0530] "GET /studentdetails/home.jsp HTTP/1.1" 200 277
127.0.0.1 - - [15/Sep/2023:12:50:31 +0530] "GET / HTTP/1.1" 404 951
0:0:0:0:0:0:0:1 - - [15/Sep/2023:12:50:39 +0530] "GET /studentdetails/home.jsp HTTP/1.1" 200 277
0:0:0:0:0:0:0:1 - - [15/Sep/2023:12:50:43 +0530] "GET /studentdetails/getDetails?name=vishwa HTTP/1.1" 302 -
0:0:0:0:0:0:0:1 - - [15/Sep/2023:12:50:43 +0530] "GET /studentdetails/Entity.jsp HTTP/1.1" 200 242
0:0:0:0:0:0:0:1 - - [15/Sep/2023:14:04:40 +0530] "GET /studentdetails/home.jsp HTTP/1.1" 200 277
0:0:0:0:0:0:0:1 - - [15/Sep/2023:14:04:43 +0530] "GET /studentdetails/getDetails?name= HTTP/1.1" 302 -
0:0:0:0:0:0:0:1 - - [15/Sep/2023:14:04:43 +0530] "GET /studentdetails/Entity.jsp HTTP/1.1" 200 242
0:0:0:0:0:0:0:1 - - [15/Sep/2023:14:04:48 +0530] "GET /studentdetails/home.jsp HTTP/1.1" 200 277
0:0:0:0:0:0:0:1 - - [15/Sep/2023:14:04:50 +0530] "GET /studentdetails/getDetails?name=vishwa HTTP/1.1" 302 -
0:0:0:0:0:0:0:1 - - [15/Sep/2023:14:04:50 +0530] "GET /studentdetails/Entity.jsp HTTP/1.1" 200 242
0:0:0:0:0:0:0:1 - - [15/Sep/2023:14:05:25 +0530] "GET /studentdetails/Entity.jsp HTTP/1.1" 200 242
0:0:0:0:0:0:0:1 - - [15/Sep/2023:14:05:28 +0530] "GET /studentdetails/getDetails?name=vishwa HTTP/1.1" 302 -
0:0:0:0:0:0:0:1 - - [15/Sep/2023:14:05:28 +0530] "GET /studentdetails/Entity.jsp HTTP/1.1" 200 242
0:0:0:0:0:0:0:1 - - [15/Sep/2023:14:05:48 +0530] "GET /studentdetails/home.jsp HTTP/1.1" 200 277
0:0:0:0:0:0:0:1 - - [15/Sep/2023:14:05:49 +0530] "GET /studentdetails/getDetails?name= HTTP/1.1" 302 -
0:0:0:0:0:0:0:1 - - [15/Sep/2023:14:05:49 +0530] "GET /studentdetails/Entity.jsp HTTP/1.1" 200 258
127.0.0.1 - - [15/Sep/2023:14:07:44 +0530] "GET / HTTP/1.1" 404 951
0:0:0:0:0:0:0:1 - - [15/Sep/2023:14:07:47 +0530] "GET /studentdetails/home.jsp HTTP/1.1" 200 277
0:0:0:0:0:0:0:1 - - [15/Sep/2023:14:07:50 +0530] "GET /studentdetails/getDetails?name=vishwa HTTP/1.1" 302 -
0:0:0:0:0:0:0:1 - - [15/Sep/2023:14:07:50 +0530] "GET /studentdetails/Entity.jsp HTTP/1.1" 200 260
0:0:0:0:0:0:0:1 - - [15/Sep/2023:14:08:47 +0530] "GET /studentdetails/Entity.jsp HTTP/1.1" 200 260
127.0.0.1 - - [15/Sep/2023:14:09:30 +0530] "GET / HTTP/1.1" 404 951
0:0:0:0:0:0:0:1 - - [15/Sep/2023:14:09:36 +0530] "GET /studentdetails/home.jsp HTTP/1.1" 200 277
0:0:0:0:0:0:0:1 - - [15/Sep/2023:14:09:37 +0530] "GET /studentdetails/home.jsp HTTP/1.1" 200 277
0:0:0:0:0:0:0:1 - - [15/Sep/2023:14:09:39 +0530] "GET /studentdetails/ HTTP/1.1" 404 981
0:0:0:0:0:0:0:1 - - [15/Sep/2023:14:09:41 +0530] "GET /favicon.ico HTTP/1.1" 404 973
0:0:0:0:0:0:0:1 - - [15/Sep/2023:14:09:48 +0530] "GET /studentdetails/home.jsp HTTP/1.1" 200 277
0:0:0:0:0:0:0:1 - - [15/Sep/2023:14:09:51 +0530] "GET /studentdetails/getDetails?name=vishwa HTTP/1.1" 302 -
0:0:0:0:0:0:0:1 - - [15/Sep/2023:14:09:51 +0530] "GET /studentdetails/Entity.jsp HTTP/1.1" 200 260
127.0.0.1 - - [15/Sep/2023:14:11:38 +0530] "GET / HTTP/1.1" 404 951
0:0:0:0:0:0:0:1 - - [15/Sep/2023:14:11:43 +0530] "GET /studentdetails/home.jsp HTTP/1.1" 200 277
0:0:0:0:0:0:0:1 - - [15/Sep/2023:14:11:47 +0530] "GET /studentdetails/getDetails?name=vishwa HTTP/1.1" 302 -
0:0:0:0:0:0:0:1 - - [15/Sep/2023:14:11:47 +0530] "GET /studentdetails/Entity.jsp HTTP/1.1" 200 1125
0:0:0:0:0:0:0:1 - - [15/Sep/2023:14:12:59 +0530] "GET /studentdetails/getDetails?name=vishwa HTTP/1.1" 302 -
0:0:0:0:0:0:0:1 - - [15/Sep/2023:14:12:59 +0530] "GET /studentdetails/Entity.jsp HTTP/1.1" 200 1125
0:0:0:0:0:0:0:1 - - [15/Sep/2023:14:15:07 +0530] "GET /studentdetails/home.jsp HTTP/1.1" 200 277
0:0:0:0:0:0:0:1 - - [15/Sep/2023:14:15:10 +0530] "GET /studentdetails/getDetails?name=vishwa HTTP/1.1" 302 -
0:0:0:0:0:0:0:1 - - [15/Sep/2023:14:15:10 +0530] "GET /studentdetails/Entity.jsp HTTP/1.1" 200 155
127.0.0.1 - - [15/Sep/2023:14:16:31 +0530] "GET / HTTP/1.1" 404 951
0:0:0:0:0:0:0:1 - - [15/Sep/2023:14:16:31 +0530] "GET /studentdetails/getDetails HTTP/1.1" 302 -
0:0:0:0:0:0:0:1 - - [15/Sep/2023:14:16:32 +0530] "GET /studentdetails/Entity.jsp HTTP/1.1" 200 242
0:0:0:0:0:0:0:1 - - [15/Sep/2023:14:16:39 +0530] "GET /studentdetails/home.jsp HTTP/1.1" 200 277
0:0:0:0:0:0:0:1 - - [15/Sep/2023:14:16:42 +0530] "GET /studentdetails/getDetails?name=vishwa HTTP/1.1" 302 -
0:0:0:0:0:0:0:1 - - [15/Sep/2023:14:16:42 +0530] "GET /studentdetails/Entity.jsp HTTP/1.1" 200 242
0:0:0:0:0:0:0:1 - - [15/Sep/2023:14:17:15 +0530] "GET /studentdetails/home.jsp HTTP/1.1" 200 277
0:0:0:0:0:0:0:1 - - [15/Sep/2023:14:17:19 +0530] "GET /studentdetails/getDetails?name=vishwa HTTP/1.1" 302 -
0:0:0:0:0:0:0:1 - - [15/Sep/2023:14:17:19 +0530] "GET /studentdetails/Entity.jsp HTTP/1.1" 200 259
0:0:0:0:0:0:0:1 - - [15/Sep/2023:14:17:35 +0530] "GET /studentdetails/home.jsp HTTP/1.1" 200 277
0:0:0:0:0:0:0:1 - - [15/Sep/2023:14:17:38 +0530] "GET /studentdetails/getDetails?name=aa HTTP/1.1" 302 -
0:0:0:0:0:0:0:1 - - [15/Sep/2023:14:17:38 +0530] "GET /studentdetails/Entity.jsp HTTP/1.1" 200 259
127.0.0.1 - - [15/Sep/2023:14:19:44 +0530] "GET / HTTP/1.1" 404 951
0:0:0:0:0:0:0:1 - - [15/Sep/2023:14:20:09 +0530] "GET /studentdetails/home.jsp HTTP/1.1" 200 277
0:0:0:0:0:0:0:1 - - [15/Sep/2023:14:20:13 +0530] "GET /studentdetails/getDetails?name=vishwa HTTP/1.1" 302 -
0:0:0:0:0:0:0:1 - - [15/Sep/2023:14:20:13 +0530] "GET /studentdetails/Entity.jsp HTTP/1.1" 200 155
0:0:0:0:0:0:0:1 - - [15/Sep/2023:14:20:31 +0530] "GET /studentdetails/Entity.jsp HTTP/1.1" 200 155
0:0:0:0:0:0:0:1 - - [15/Sep/2023:14:20:33 +0530] "GET /studentdetails/home.jsp HTTP/1.1" 200 277
0:0:0:0:0:0:0:1 - - [15/Sep/2023:14:20:35 +0530] "GET /studentdetails/getDetails?name=vishwa HTTP/1.1" 302 -
0:0:0:0:0:0:0:1 - - [15/Sep/2023:14:20:35 +0530] "GET /studentdetails/Entity.jsp HTTP/1.1" 200 155
0:0:0:0:0:0:0:1 - - [15/Sep/2023:14:20:48 +0530] "GET /studentdetails/home.jsp HTTP/1.1" 200 277
0:0:0:0:0:0:0:1 - - [15/Sep/2023:14:20:50 +0530] "GET /studentdetails/getDetails?name=vishwa HTTP/1.1" 302 -
0:0:0:0:0:0:0:1 - - [15/Sep/2023:14:20:50 +0530] "GET /studentdetails/Entity.jsp HTTP/1.1" 200 155
0:0:0:0:0:0:0:1 - - [15/Sep/2023:14:21:07 +0530] "GET /studentdetails/Entity.jsp HTTP/1.1" 200 157
0:0:0:0:0:0:0:1 - - [15/Sep/2023:14:21:17 +0530] "GET /studentdetails/home.jsp HTTP/1.1" 200 277
0:0:0:0:0:0:0:1 - - [15/Sep/2023:14:21:20 +0530] "GET /studentdetails/getDetails?name=vishwa HTTP/1.1" 302 -
0:0:0:0:0:0:0:1 - - [15/Sep/2023:14:21:20 +0530] "GET /studentdetails/Entity.jsp HTTP/1.1" 200 1125
0:0:0:0:0:0:0:1 - - [15/Sep/2023:14:23:54 +0530] "GET /studentdetails/home.jsp HTTP/1.1" 200 277
0:0:0:0:0:0:0:1 - - [15/Sep/2023:14:23:56 +0530] "GET /studentdetails/getDetails?name=vishwa HTTP/1.1" 302 -
0:0:0:0:0:0:0:1 - - [15/Sep/2023:14:23:56 +0530] "GET /studentdetails/Entity.jsp HTTP/1.1" 200 258
0:0:0:0:0:0:0:1 - - [15/Sep/2023:14:25:53 +0530] "GET /studentdetails/home.jsp HTTP/1.1" 200 277
0:0:0:0:0:0:0:1 - - [15/Sep/2023:14:26:01 +0530] "GET /studentdetails/getDetails?name=vishwa HTTP/1.1" 302 -
0:0:0:0:0:0:0:1 - - [15/Sep/2023:14:26:01 +0530] "GET /studentdetails/Entity.jsp HTTP/1.1" 200 259
0:0:0:0:0:0:0:1 - - [15/Sep/2023:14:26:11 +0530] "GET /studentdetails/getDetails?name=aa HTTP/1.1" 302 -
0:0:0:0:0:0:0:1 - - [15/Sep/2023:14:26:11 +0530] "GET /studentdetails/Entity.jsp HTTP/1.1" 200 259
0:0:0:0:0:0:0:1 - - [15/Sep/2023:14:26:17 +0530] "GET /studentdetails/getDetails?name=ramesh HTTP/1.1" 302 -
0:0:0:0:0:0:0:1 - - [15/Sep/2023:14:26:17 +0530] "GET /studentdetails/Entity.jsp HTTP/1.1" 200 259
0:0:0:0:0:0:0:1 - - [15/Sep/2023:14:26:20 +0530] "GET /studentdetails/home.jsp HTTP/1.1" 200 277
0:0:0:0:0:0:0:1 - - [15/Sep/2023:14:26:21 +0530] "GET /studentdetails/getDetails?name= HTTP/1.1" 302 -
0:0:0:0:0:0:0:1 - - [15/Sep/2023:14:26:21 +0530] "GET /studentdetails/Entity.jsp HTTP/1.1" 200 259
0:0:0:0:0:0:0:1 - - [15/Sep/2023:14:26:43 +0530] "GET /studentdetails/home.jsp HTTP/1.1" 200 277
0:0:0:0:0:0:0:1 - - [15/Sep/2023:14:26:45 +0530] "GET /studentdetails/getDetails?name=vishwa HTTP/1.1" 302 -
0:0:0:0:0:0:0:1 - - [15/Sep/2023:14:26:45 +0530] "GET /studentdetails/Entity.jsp HTTP/1.1" 200 258
0:0:0:0:0:0:0:1 - - [15/Sep/2023:14:27:30 +0530] "GET /studentdetails/home.jsp HTTP/1.1" 200 277
0:0:0:0:0:0:0:1 - - [15/Sep/2023:14:27:31 +0530] "GET /studentdetails/getDetails?name=vishwa HTTP/1.1" 302 -
0:0:0:0:0:0:0:1 - - [15/Sep/2023:14:27:31 +0530] "GET /studentdetails/Entity.jsp HTTP/1.1" 200 242
0:0:0:0:0:0:0:1 - - [15/Sep/2023:17:28:38 +0530] "GET /studentdetails/home.jsp HTTP/1.1" 200 277
0:0:0:0:0:0:0:1 - - [15/Sep/2023:17:28:41 +0530] "GET /studentdetails/getDetails?name=vishwa HTTP/1.1" 302 -
0:0:0:0:0:0:0:1 - - [15/Sep/2023:17:28:41 +0530] "GET /studentdetails/Entity.jsp HTTP/1.1" 200 242
0:0:0:0:0:0:0:1 - - [15/Sep/2023:17:28:43 +0530] "GET /studentdetails/home.jsp HTTP/1.1" 200 277
